45 15 112
555 555 31
1 10 20
100 200 125
201 210 89
900 1000 174
650 700 145
1 200 125
5000 6000 236
18 22 21
10000 15000 276
325 800 171
211 325 131
800 900 179
500 1000 179
200 500 144
2000 3000 217
3000 4000 238
4000 5000 215
1 1000 179
555 777 171
888 1111 174
15 51 112
6000 7000 262
7000 8000 252
80000 90000 333
57 92 116
18 24 21
15 30 112
900 1800 182
1800 1805 162
1492 1500 48
253607 473981 449
115115 609609 470
424862 500000 444
116003 677436 509
126105 449578 449
516266 783692 509
517115 736020 509
78284 405221 443
405 406 41
81288 85326 320
32430 32524 192
26356 57739 340
41480 79682 351
79682 81681 320
85 108 119
193312 199907 360
500 149037 375
21 196767 383
599 71659 340
699 60269 340
70987 189177 383
88579 102049 341
60781 142385 354
143417 150711 370
126479 194762 383
879888 885346 370
973779 979792 383
471604 1000000 525
861319 864945 344
157537 770295 509
437058 836193 509
153358 672999 509
176247 194202 365
198757 199645 329
9415 9933 242
9725 9829 198
7754 9740 260
871 62079 340
46137 99419 351
939 74884 340
42197 86496 351
61743 79530 351
5774 99922 351
7031 88252 351
11656 78699 351
4571 9992 262
82577 91400 333
5010 22516 279
6513 8726 257
89337 99521 333
1421 93690 351
5983 91969 351
9999 10000 92
22 40 112
15 21 21
32 45 110
23 32 112
55 66 113
203 302 128
45 54 113
69 96 116
7 70 113
18 81 116
34 43 110
15 51 112
78 87 111
405 504 142
609 906 179
300 302 17
1000 1003 143
305734 639574 509
31000 375051 443
208308 311559 443
437840 661024 509
676643 755118 504
518083 784977 509
461118 825870 509
5 10 20
15 30 112
25 50 112
82587 165174 383
45 90 116
585967 839964 525
376217 402450 436
849841 872377 432
123123 321321 443
798820 827562 450
863681 968300 507
93773 99787 328
9246 27176 308
70479 92571 351
83463 85859 320
51702 93634 351
85071 94174 333
68593 84749 351
19744 58489 340
15309 72093 340
72093 79294 351
81069 99871 333
99871 99923 204
99959 99998 204
99998 99999 227
99990 99999 227
99993 99996 204
92454 92854 302
928541 987062 507
136003 227063 386
227063 432278 449
432278 498206 444
498206 651122 509
651122 822687 504
199002 642677 509
101 217 125
89 98 119
47 75 116
999 9999 262
500 555 137
604 798 171
1211 1344 177
55566 99999 351
